[{
  "id": 1,
  "Title": "Osus ekalam",
  "Article": "Reduced human-resource concept1 Lorem consectetur dolor labore reprehenderit mollit eu officia reprehenderit ullamco sunt elit Avada Kedabra.",
  "Author": "Adah Clorley",
  "Author_img_url" : "https://scontent.fmnl13-1.fna.fbcdn.net/v/t1.6435-9/83185366_907843982946130_2332233001972269056_n.jpg?_nc_cat=104&ccb=1-7&_nc_sid=09cbfe&_nc_eui2=AeEf-ksbWpIAit2p-gtUEujQhsUtNGZER4KGxS00ZkRHgvMnTaVBUDVDj82c6q2A_HUavq1UFs5Ro27LpWpTmKUb&_nc_ohc=Z3-ycEpdHwwAX8fxuTj&_nc_ht=scontent.fmnl13-1.fna&oh=00_AfDXU9hUAHcLVETGDktqQaXGzo8nY2pnFwQRk4b8qdbQzA&oe=64116986",
  "date_Posted": "3/5/2022",
  "Image_url": "https://encrypted-tbn0.gstatic.com/images?q=tbn:ANd9GcRZNN_ea_96nLpLRDRRkkb2_kZOYTWA-joXfA&usqp=CAU",
  "tags":"PESO UPDATES"
}, {
  "id": 2,
  "Title": "Honorable",
  "Article": "Reduced human-resource concept1 Lorem consectetur dolor labore reprehenderit mollit eu officia reprehenderit ullamco sunt elit Avada Kedabra.",
  "Author": "Gerome Labden",
  "Author_img_url" : "https://scontent.fmnl13-1.fna.fbcdn.net/v/t1.6435-9/83185366_907843982946130_2332233001972269056_n.jpg?_nc_cat=104&ccb=1-7&_nc_sid=09cbfe&_nc_eui2=AeEf-ksbWpIAit2p-gtUEujQhsUtNGZER4KGxS00ZkRHgvMnTaVBUDVDj82c6q2A_HUavq1UFs5Ro27LpWpTmKUb&_nc_ohc=Z3-ycEpdHwwAX8fxuTj&_nc_ht=scontent.fmnl13-1.fna&oh=00_AfDXU9hUAHcLVETGDktqQaXGzo8nY2pnFwQRk4b8qdbQzA&oe=64116986",
  "date_Posted": "3/15/2022",
  "Image_url": "https://encrypted-tbn0.gstatic.com/images?q=tbn:ANd9GcRZNN_ea_96nLpLRDRRkkb2_kZOYTWA-joXfA&usqp=CAU",
  "tags":"LATEST NEWS"
}, {
  "id": 3,
  "Title": "Honorable",
  "Article": "Reduced human-resource concept1 Lorem consectetur dolor labore reprehenderit mollit eu officia reprehenderit ullamco sunt elit Avada Kedabra.",
  "Author": "Persis Lidierth",
  "Author_img_url" : "https://scontent.fmnl13-1.fna.fbcdn.net/v/t1.6435-9/83185366_907843982946130_2332233001972269056_n.jpg?_nc_cat=104&ccb=1-7&_nc_sid=09cbfe&_nc_eui2=AeEf-ksbWpIAit2p-gtUEujQhsUtNGZER4KGxS00ZkRHgvMnTaVBUDVDj82c6q2A_HUavq1UFs5Ro27LpWpTmKUb&_nc_ohc=Z3-ycEpdHwwAX8fxuTj&_nc_ht=scontent.fmnl13-1.fna&oh=00_AfDXU9hUAHcLVETGDktqQaXGzo8nY2pnFwQRk4b8qdbQzA&oe=64116986",
  "date_Posted": "1/15/2023",
  "Image_url": "https://encrypted-tbn0.gstatic.com/images?q=tbn:ANd9GcRZNN_ea_96nLpLRDRRkkb2_kZOYTWA-joXfA&usqp=CAU",
  "tags":"MUNICIPAL NEWS"
}, {
  "id": 4,
  "Title": "Honorable",
  "Article": "Reduced human-resource concept1 Lorem consectetur dolor labore reprehenderit mollit eu officia reprehenderit ullamco sunt elit Avada Kedabra.",
  "Author": "Timoteo Fairlaw",
  "Author_img_url" : "https://scontent.fmnl13-1.fna.fbcdn.net/v/t1.6435-9/83185366_907843982946130_2332233001972269056_n.jpg?_nc_cat=104&ccb=1-7&_nc_sid=09cbfe&_nc_eui2=AeEf-ksbWpIAit2p-gtUEujQhsUtNGZER4KGxS00ZkRHgvMnTaVBUDVDj82c6q2A_HUavq1UFs5Ro27LpWpTmKUb&_nc_ohc=Z3-ycEpdHwwAX8fxuTj&_nc_ht=scontent.fmnl13-1.fna&oh=00_AfDXU9hUAHcLVETGDktqQaXGzo8nY2pnFwQRk4b8qdbQzA&oe=64116986",
  "date_Posted": "7/3/2022",
  "Image_url": "https://encrypted-tbn0.gstatic.com/images?q=tbn:ANd9GcRZNN_ea_96nLpLRDRRkkb2_kZOYTWA-joXfA&usqp=CAU",
  "tags":"LATEST NEWS"
}, {
  "id": 5,
  "Title": "Honorable",
  "Article": "Reduced human-resource concept1 Lorem consectetur dolor labore reprehenderit mollit eu officia reprehenderit ullamco sunt elit Avada Kedabra.", 
  "Author": "Moishe McArte",
  "Author_img_url" : "https://scontent.fmnl13-1.fna.fbcdn.net/v/t1.6435-9/83185366_907843982946130_2332233001972269056_n.jpg?_nc_cat=104&ccb=1-7&_nc_sid=09cbfe&_nc_eui2=AeEf-ksbWpIAit2p-gtUEujQhsUtNGZER4KGxS00ZkRHgvMnTaVBUDVDj82c6q2A_HUavq1UFs5Ro27LpWpTmKUb&_nc_ohc=Z3-ycEpdHwwAX8fxuTj&_nc_ht=scontent.fmnl13-1.fna&oh=00_AfDXU9hUAHcLVETGDktqQaXGzo8nY2pnFwQRk4b8qdbQzA&oe=64116986",
  "date_Posted": "1/8/2023",
  "Image_url": "https://encrypted-tbn0.gstatic.com/images?q=tbn:ANd9GcRZNN_ea_96nLpLRDRRkkb2_kZOYTWA-joXfA&usqp=CAU",
  "tags":"MUNICIPAL NEWS"
}, {
  "id": 6,
  "Title": "Mr",
  "Article": "Reduced human-resource concept1 Lorem consectetur dolor labore reprehenderit mollit eu officia reprehenderit ullamco sunt elit Avada Kedabra.", 
  "Author_img_url" : "https://scontent.fmnl13-1.fna.fbcdn.net/v/t1.6435-9/83185366_907843982946130_2332233001972269056_n.jpg?_nc_cat=104&ccb=1-7&_nc_sid=09cbfe&_nc_eui2=AeEf-ksbWpIAit2p-gtUEujQhsUtNGZER4KGxS00ZkRHgvMnTaVBUDVDj82c6q2A_HUavq1UFs5Ro27LpWpTmKUb&_nc_ohc=Z3-ycEpdHwwAX8fxuTj&_nc_ht=scontent.fmnl13-1.fna&oh=00_AfDXU9hUAHcLVETGDktqQaXGzo8nY2pnFwQRk4b8qdbQzA&oe=64116986",
  "date_Posted": "8/27/2022",
  "Image_url": "https://encrypted-tbn0.gstatic.com/images?q=tbn:ANd9GcRZNN_ea_96nLpLRDRRkkb2_kZOYTWA-joXfA&usqp=CAU",
  "tags":"MUNICIPAL NEWS"
}, {
  "id": 7,
  "Title": "Mrs",
  "Article": "Reduced human-resource concept1 Lorem consectetur dolor labore reprehenderit mollit eu officia reprehenderit ullamco sunt elit Avada Kedabra.", 
  "Author": "Kora Stalley",
  "Author_img_url" : "https://scontent.fmnl13-1.fna.fbcdn.net/v/t1.6435-9/83185366_907843982946130_2332233001972269056_n.jpg?_nc_cat=104&ccb=1-7&_nc_sid=09cbfe&_nc_eui2=AeEf-ksbWpIAit2p-gtUEujQhsUtNGZER4KGxS00ZkRHgvMnTaVBUDVDj82c6q2A_HUavq1UFs5Ro27LpWpTmKUb&_nc_ohc=Z3-ycEpdHwwAX8fxuTj&_nc_ht=scontent.fmnl13-1.fna&oh=00_AfDXU9hUAHcLVETGDktqQaXGzo8nY2pnFwQRk4b8qdbQzA&oe=64116986",
  "date_Posted": "6/28/2022",
  "Image_url": "https://encrypted-tbn0.gstatic.com/images?q=tbn:ANd9GcRZNN_ea_96nLpLRDRRkkb2_kZOYTWA-joXfA&usqp=CAU",
  "tags":"PESO UPDATES"
}, {
  "id": 8,
  "Title": "Mrs",
  "Article": "Reduced human-resource concept1 Lorem consectetur dolor labore reprehenderit mollit eu officia reprehenderit ullamco sunt elit Avada Kedabra.",
  "Author": "Christophe Verrechia",
  "Author_img_url" : "https://scontent.fmnl13-1.fna.fbcdn.net/v/t1.6435-9/83185366_907843982946130_2332233001972269056_n.jpg?_nc_cat=104&ccb=1-7&_nc_sid=09cbfe&_nc_eui2=AeEf-ksbWpIAit2p-gtUEujQhsUtNGZER4KGxS00ZkRHgvMnTaVBUDVDj82c6q2A_HUavq1UFs5Ro27LpWpTmKUb&_nc_ohc=Z3-ycEpdHwwAX8fxuTj&_nc_ht=scontent.fmnl13-1.fna&oh=00_AfDXU9hUAHcLVETGDktqQaXGzo8nY2pnFwQRk4b8qdbQzA&oe=64116986",
  "date_Posted": "3/29/2022",
  "Image_url": "https://encrypted-tbn0.gstatic.com/images?q=tbn:ANd9GcRZNN_ea_96nLpLRDRRkkb2_kZOYTWA-joXfA&usqp=CAU",
  "tags":"PESO UPDATES"
}, {
  "id": 9,
  "Title": "Dr",
  "Article": "Reduced human-resource concept1 Lorem consectetur dolor labore reprehenderit mollit eu officia reprehenderit ullamco sunt elit Avada Kedabra.",
  "Author": "Carney Pardey",
  "Author_img_url" : "https://scontent.fmnl13-1.fna.fbcdn.net/v/t1.6435-9/83185366_907843982946130_2332233001972269056_n.jpg?_nc_cat=104&ccb=1-7&_nc_sid=09cbfe&_nc_eui2=AeEf-ksbWpIAit2p-gtUEujQhsUtNGZER4KGxS00ZkRHgvMnTaVBUDVDj82c6q2A_HUavq1UFs5Ro27LpWpTmKUb&_nc_ohc=Z3-ycEpdHwwAX8fxuTj&_nc_ht=scontent.fmnl13-1.fna&oh=00_AfDXU9hUAHcLVETGDktqQaXGzo8nY2pnFwQRk4b8qdbQzA&oe=64116986",
  "date_Posted": "8/21/2022",
  "Image_url": "https://encrypted-tbn0.gstatic.com/images?q=tbn:ANd9GcRZNN_ea_96nLpLRDRRkkb2_kZOYTWA-joXfA&usqp=CAU",
  "tags":"PESO UPDATES"
}, {
  "id": 10,
  "Title": "Rev",
  "Article": "Reduced human-resource concept1 Lorem consectetur dolor labore reprehenderit mollit eu officia reprehenderit ullamco sunt elit Avada Kedabra.",
  "Author": "Darnall Huckabe",
  "Author_img_url" : "https://scontent.fmnl13-1.fna.fbcdn.net/v/t1.6435-9/83185366_907843982946130_2332233001972269056_n.jpg?_nc_cat=104&ccb=1-7&_nc_sid=09cbfe&_nc_eui2=AeEf-ksbWpIAit2p-gtUEujQhsUtNGZER4KGxS00ZkRHgvMnTaVBUDVDj82c6q2A_HUavq1UFs5Ro27LpWpTmKUb&_nc_ohc=Z3-ycEpdHwwAX8fxuTj&_nc_ht=scontent.fmnl13-1.fna&oh=00_AfDXU9hUAHcLVETGDktqQaXGzo8nY2pnFwQRk4b8qdbQzA&oe=64116986",
  "date_Posted": "10/21/2022",
  "Image_url": "https://encrypted-tbn0.gstatic.com/images?q=tbn:ANd9GcRZNN_ea_96nLpLRDRRkkb2_kZOYTWA-joXfA&usqp=CAU",
  "tags":"LATEST NEWS"
}]