munisipal
https://bulan4706.com/wp-content/uploads/2022/10/presidencia2-scaled.jpg
-----------

https://scontent.fmnl13-1.fna.fbcdn.net/v/t31.18172-8/1498763_637798596346644_7662990731913674140_o.jpg?_nc_cat=100&ccb=1-7&_nc_sid=174925&_nc_ohc=5uvT0SFa01QAX_JbV_g&_nc_ht=scontent.fmnl13-1.fna&oh=00_AfDnR1how0xAJVZULcXkJ-FikLrWU-t7ARR81Hb4KL5Deg&oe=63F8168D


simbahan

https://scontent.fmnl13-1.fna.fbcdn.net/v/t1.18169-9/10982463_643318855794618_6508887098154561629_n.jpg?_nc_cat=103&ccb=1-7&_nc_sid=cdbe9c&_nc_ohc=EY4hSr3Psw0AX8dim2i&_nc_ht=scontent.fmnl13-1.fna&oh=00_AfAj8SJD_pBGm7sD21L39U_IxgrVnWovp2YBqAg_eRUD7A&oe=63F840E9